%YAML 1.1
%TAG !u! tag:unity3d.com,2011:
--- !u!1 &273204580352914739
GameObject:
  m_ObjectHideFlags: 0
  m_CorrespondingSourceObject: {fileID: 0}
  m_PrefabInstance: {fileID: 0}
  m_PrefabAsset: {fileID: 0}
  serializedVersion: 6
  m_Component:
  - component: {fileID: 1671283007686277647}
  m_Layer: 0
  m_Name: SpaceshipCanon
  m_TagString: Untagged
  m_Icon: {fileID: 0}
  m_NavMeshLayer: 0
  m_StaticEditorFlags: 0
  m_IsActive: 1
--- !u!4 &1671283007686277647
Transform:
  m_ObjectHideFlags: 0
  m_CorrespondingSourceObject: {fileID: 0}
  m_PrefabInstance: {fileID: 0}
  m_PrefabAsset: {fileID: 0}
  m_GameObject: {fileID: 273204580352914739}
  serializedVersion: 2
  m_LocalRotation: {x: 0, y: 0, z: 0, w: 1}
  m_LocalPosition: {x: 0, y: 0, z: 0}
  m_LocalScale: {x: 1, y: 1, z: 1}
  m_ConstrainProportionsScale: 0
  m_Children:
  - {fileID: 7001760787053266814}
  - {fileID: 7360132691495388318}
  m_Father: {fileID: 0}
  m_LocalEulerAnglesHint: {x: 0, y: 0, z: 0}
--- !u!1001 &6984032512931756044
PrefabInstance:
  m_ObjectHideFlags: 0
  serializedVersion: 2
  m_Modification:
    serializedVersion: 3
    m_TransformParent: {fileID: 1671283007686277647}
    m_Modifications:
    - target: {fileID: 488699103082052754, guid: 27a08dea7f15d14469177ebad998343c,
        type: 3}
      propertyPath: m_LocalPosition.x
      value: -5
      objectReference: {fileID: 0}
    - target: {fileID: 488699103082052754, guid: 27a08dea7f15d14469177ebad998343c,
        type: 3}
      propertyPath: m_LocalPosition.y
      value: 0
      objectReference: {fileID: 0}
    - target: {fileID: 488699103082052754, guid: 27a08dea7f15d14469177ebad998343c,
        type: 3}
      propertyPath: m_LocalPosition.z
      value: 0
      objectReference: {fileID: 0}
    - target: {fileID: 488699103082052754, guid: 27a08dea7f15d14469177ebad998343c,
        type: 3}
      propertyPath: m_LocalRotation.w
      value: 0
      objectReference: {fileID: 0}
    - target: {fileID: 488699103082052754, guid: 27a08dea7f15d14469177ebad998343c,
        type: 3}
      propertyPath: m_LocalRotation.x
      value: 0
      objectReference: {fileID: 0}
    - target: {fileID: 488699103082052754, guid: 27a08dea7f15d14469177ebad998343c,
        type: 3}
      propertyPath: m_LocalRotation.y
      value: 0.9961947
      objectReference: {fileID: 0}
    - target: {fileID: 488699103082052754, guid: 27a08dea7f15d14469177ebad998343c,
        type: 3}
      propertyPath: m_LocalRotation.z
      value: 0.08715578
      objectReference: {fileID: 0}
    - target: {fileID: 488699103082052754, guid: 27a08dea7f15d14469177ebad998343c,
        type: 3}
      propertyPath: m_LocalEulerAnglesHint.x
      value: -10
      objectReference: {fileID: 0}
    - target: {fileID: 488699103082052754, guid: 27a08dea7f15d14469177ebad998343c,
        type: 3}
      propertyPath: m_LocalEulerAnglesHint.y
      value: 180
      objectReference: {fileID: 0}
    - target: {fileID: 488699103082052754, guid: 27a08dea7f15d14469177ebad998343c,
        type: 3}
      propertyPath: m_LocalEulerAnglesHint.z
      value: 0
      objectReference: {fileID: 0}
    - target: {fileID: 6361147685565184560, guid: 27a08dea7f15d14469177ebad998343c,
        type: 3}
      propertyPath: m_Name
      value: CanonLeft
      objectReference: {fileID: 0}
    m_RemovedComponents: []
    m_RemovedGameObjects: []
    m_AddedGameObjects: []
    m_AddedComponents: []
  m_SourcePrefab: {fileID: 100100000, guid: 27a08dea7f15d14469177ebad998343c, type: 3}
--- !u!4 &7360132691495388318 stripped
Transform:
  m_CorrespondingSourceObject: {fileID: 488699103082052754, guid: 27a08dea7f15d14469177ebad998343c,
    type: 3}
  m_PrefabInstance: {fileID: 6984032512931756044}
  m_PrefabAsset: {fileID: 0}
--- !u!1001 &7485956097234189292
PrefabInstance:
  m_ObjectHideFlags: 0
  serializedVersion: 2
  m_Modification:
    serializedVersion: 3
    m_TransformParent: {fileID: 1671283007686277647}
    m_Modifications:
    - target: {fileID: 488699103082052754, guid: 27a08dea7f15d14469177ebad998343c,
        type: 3}
      propertyPath: m_LocalPosition.x
      value: -5
      objectReference: {fileID: 0}
    - target: {fileID: 488699103082052754, guid: 27a08dea7f15d14469177ebad998343c,
        type: 3}
      propertyPath: m_LocalPosition.y
      value: 0
      objectReference: {fileID: 0}
    - target: {fileID: 488699103082052754, guid: 27a08dea7f15d14469177ebad998343c,
        type: 3}
      propertyPath: m_LocalPosition.z
      value: 0
      objectReference: {fileID: 0}
    - target: {fileID: 488699103082052754, guid: 27a08dea7f15d14469177ebad998343c,
        type: 3}
      propertyPath: m_LocalRotation.w
      value: 0
      objectReference: {fileID: 0}
    - target: {fileID: 488699103082052754, guid: 27a08dea7f15d14469177ebad998343c,
        type: 3}
      propertyPath: m_LocalRotation.x
      value: 0
      objectReference: {fileID: 0}
    - target: {fileID: 488699103082052754, guid: 27a08dea7f15d14469177ebad998343c,
        type: 3}
      propertyPath: m_LocalRotation.y
      value: 0.9961947
      objectReference: {fileID: 0}
    - target: {fileID: 488699103082052754, guid: 27a08dea7f15d14469177ebad998343c,
        type: 3}
      propertyPath: m_LocalRotation.z
      value: 0.08715578
      objectReference: {fileID: 0}
    - target: {fileID: 488699103082052754, guid: 27a08dea7f15d14469177ebad998343c,
        type: 3}
      propertyPath: m_LocalEulerAnglesHint.x
      value: -10
      objectReference: {fileID: 0}
    - target: {fileID: 488699103082052754, guid: 27a08dea7f15d14469177ebad998343c,
        type: 3}
      propertyPath: m_LocalEulerAnglesHint.y
      value: 180
      objectReference: {fileID: 0}
    - target: {fileID: 488699103082052754, guid: 27a08dea7f15d14469177ebad998343c,
        type: 3}
      propertyPath: m_LocalEulerAnglesHint.z
      value: 0
      objectReference: {fileID: 0}
    - target: {fileID: 6361147685565184560, guid: 27a08dea7f15d14469177ebad998343c,
        type: 3}
      propertyPath: m_Name
      value: CanonRight
      objectReference: {fileID: 0}
    m_RemovedComponents: []
    m_RemovedGameObjects: []
    m_AddedGameObjects: []
    m_AddedComponents: []
  m_SourcePrefab: {fileID: 100100000, guid: 27a08dea7f15d14469177ebad998343c, type: 3}
--- !u!4 &7001760787053266814 stripped
Transform:
  m_CorrespondingSourceObject: {fileID: 488699103082052754, guid: 27a08dea7f15d14469177ebad998343c,
    type: 3}
  m_PrefabInstance: {fileID: 7485956097234189292}
  m_PrefabAsset: {fileID: 0}
