%YAML 1.1
%TAG !u! tag:unity3d.com,2011:
--- !u!74 &7400000
AnimationClip:
  m_ObjectHideFlags: 0
  m_CorrespondingSourceObject: {fileID: 0}
  m_PrefabInstance: {fileID: 0}
  m_PrefabAsset: {fileID: 0}
  m_Name: menu_close
  serializedVersion: 7
  m_Legacy: 0
  m_Compressed: 0
  m_UseHighQualityCurve: 1
  m_RotationCurves: []
  m_CompressedRotationCurves: []
  m_EulerCurves: []
  m_PositionCurves: []
  m_ScaleCurves:
  - curve:
      serializedVersion: 2
      m_Curve:
      - serializedVersion: 3
        time: 0
        value: {x: 1, y: 1, z: 1}
        inSlope: {x: -0.018911917, y: -0.07209741, z: 0.05100388}
        outSlope: {x: -0.018911917, y: -0.07209741, z: 0.05100388}
        tangentMode: 0
        weightedMode: 0
        inWeight: {x: 0.16797918, y: 0.100317866, z: 0.24406385}
        outWeight: {x: 0.33333334, y: 0.13993126, z: 0.14832714}
      - serializedVersion: 3
        time: 0.5
        value: {x: 0, y: 0, z: 0}
        inSlope: {x: -0.17327881, y: -0.21529877, z: -0.08993498}
        outSlope: {x: -0.17327881, y: -0.21529877, z: -0.08993498}
        tangentMode: 0
        weightedMode: 0
        inWeight: {x: 0.12403029, y: 0.14082205, z: 0.14082205}
        outWeight: {x: 0.061765738, y: 0.062637575, z: 0.09227255}
      m_PreInfinity: 2
      m_PostInfinity: 2
      m_RotationOrder: 4
    path: 
  m_FloatCurves: []
  m_PPtrCurves: []
  m_SampleRate: 60
  m_WrapMode: 0
  m_Bounds:
    m_Center: {x: 0, y: 0, z: 0}
    m_Extent: {x: 0, y: 0, z: 0}
  m_ClipBindingConstant:
    genericBindings:
    - serializedVersion: 2
      path: 0
      attribute: 3
      script: {fileID: 0}
      typeID: 4
      customType: 0
      isPPtrCurve: 0
      isIntCurve: 0
      isSerializeReferenceCurve: 0
    pptrCurveMapping: []
  m_AnimationClipSettings:
    serializedVersion: 2
    m_AdditiveReferencePoseClip: {fileID: 0}
    m_AdditiveReferencePoseTime: 0
    m_StartTime: 0
    m_StopTime: 0.5
    m_OrientationOffsetY: 0
    m_Level: 0
    m_CycleOffset: 0
    m_HasAdditiveReferencePose: 0
    m_LoopTime: 1
    m_LoopBlend: 0
    m_LoopBlendOrientation: 0
    m_LoopBlendPositionY: 0
    m_LoopBlendPositionXZ: 0
    m_KeepOriginalOrientation: 0
    m_KeepOriginalPositionY: 1
    m_KeepOriginalPositionXZ: 0
    m_HeightFromFeet: 0
    m_Mirror: 0
  m_EditorCurves:
  - serializedVersion: 2
    curve:
      serializedVersion: 2
      m_Curve:
      - serializedVersion: 3
        time: 0
        value: 1
        inSlope: -0.018911917
        outSlope: -0.018911917
        tangentMode: 0
        weightedMode: 0
        inWeight: 0.16797918
        outWeight: 0.33333334
      - serializedVersion: 3
        time: 0.5
        value: 0
        inSlope: -0.17327881
        outSlope: -0.17327881
        tangentMode: 0
        weightedMode: 0
        inWeight: 0.12403029
        outWeight: 0.061765738
      m_PreInfinity: 2
      m_PostInfinity: 2
      m_RotationOrder: 4
    attribute: m_LocalScale.x
    path: 
    classID: 224
    script: {fileID: 0}
    flags: 0
  - serializedVersion: 2
    curve:
      serializedVersion: 2
      m_Curve:
      - serializedVersion: 3
        time: 0
        value: 1
        inSlope: -0.07209741
        outSlope: -0.07209741
        tangentMode: 0
        weightedMode: 0
        inWeight: 0.100317866
        outWeight: 0.13993126
      - serializedVersion: 3
        time: 0.5
        value: 0
        inSlope: -0.21529877
        outSlope: -0.21529877
        tangentMode: 0
        weightedMode: 0
        inWeight: 0.14082205
        outWeight: 0.062637575
      m_PreInfinity: 2
      m_PostInfinity: 2
      m_RotationOrder: 4
    attribute: m_LocalScale.y
    path: 
    classID: 224
    script: {fileID: 0}
    flags: 0
  - serializedVersion: 2
    curve:
      serializedVersion: 2
      m_Curve:
      - serializedVersion: 3
        time: 0
        value: 1
        inSlope: 0.05100388
        outSlope: 0.05100388
        tangentMode: 0
        weightedMode: 0
        inWeight: 0.24406385
        outWeight: 0.14832714
      - serializedVersion: 3
        time: 0.5
        value: 0
        inSlope: -0.08993498
        outSlope: -0.08993498
        tangentMode: 0
        weightedMode: 0
        inWeight: 0.14082205
        outWeight: 0.09227255
      m_PreInfinity: 2
      m_PostInfinity: 2
      m_RotationOrder: 4
    attribute: m_LocalScale.z
    path: 
    classID: 224
    script: {fileID: 0}
    flags: 0
  m_EulerEditorCurves: []
  m_HasGenericRootTransform: 0
  m_HasMotionFloatCurves: 0
  m_Events: []
