%YAML 1.1
%TAG !u! tag:unity3d.com,2011:
--- !u!1 &1906631484910594704
GameObject:
  m_ObjectHideFlags: 0
  m_CorrespondingSourceObject: {fileID: 0}
  m_PrefabInstance: {fileID: 0}
  m_PrefabAsset: {fileID: 0}
  serializedVersion: 6
  m_Component:
  - component: {fileID: 3764568182775414197}
  - component: {fileID: 2624292926324006388}
  - component: {fileID: 7751669403031880658}
  - component: {fileID: 111191318674446674}
  - component: {fileID: 4315511750535313391}
  m_Layer: 0
  m_Name: Visual Feedback
  m_TagString: Untagged
  m_Icon: {fileID: 0}
  m_NavMeshLayer: 0
  m_StaticEditorFlags: 0
  m_IsActive: 1
--- !u!4 &3764568182775414197
Transform:
  m_ObjectHideFlags: 0
  m_CorrespondingSourceObject: {fileID: 0}
  m_PrefabInstance: {fileID: 0}
  m_PrefabAsset: {fileID: 0}
  m_GameObject: {fileID: 1906631484910594704}
  serializedVersion: 2
  m_LocalRotation: {x: -0, y: -0, z: -0, w: 1}
  m_LocalPosition: {x: 0, y: 0, z: 0}
  m_LocalScale: {x: 1, y: 1, z: 1}
  m_ConstrainProportionsScale: 0
  m_Children: []
  m_Father: {fileID: 7995390759869629324}
  m_LocalEulerAnglesHint: {x: 0, y: 0, z: 0}
--- !u!114 &2624292926324006388
MonoBehaviour:
  m_ObjectHideFlags: 0
  m_CorrespondingSourceObject: {fileID: 0}
  m_PrefabInstance: {fileID: 0}
  m_PrefabAsset: {fileID: 0}
  m_GameObject: {fileID: 1906631484910594704}
  m_Enabled: 1
  m_EditorHideFlags: 0
  m_Script: {fileID: 11500000, guid: 1410cbaaadf84a7aaa6459d37ad21b3a, type: 3}
  m_Name: 
  m_EditorClassIdentifier: 
  m_Renderer: {fileID: 4952005941275491950}
  m_MaterialIndex: 0
--- !u!114 &7751669403031880658
MonoBehaviour:
  m_ObjectHideFlags: 0
  m_CorrespondingSourceObject: {fileID: 0}
  m_PrefabInstance: {fileID: 0}
  m_PrefabAsset: {fileID: 0}
  m_GameObject: {fileID: 1906631484910594704}
  m_Enabled: 1
  m_EditorHideFlags: 0
  m_Script: {fileID: 11500000, guid: 1410cbaaadf84a7aaa6459d37ad21b3a, type: 3}
  m_Name: 
  m_EditorClassIdentifier: 
  m_Renderer: {fileID: 4952005941275491950}
  m_MaterialIndex: 1
--- !u!114 &111191318674446674
MonoBehaviour:
  m_ObjectHideFlags: 0
  m_CorrespondingSourceObject: {fileID: 0}
  m_PrefabInstance: {fileID: 0}
  m_PrefabAsset: {fileID: 0}
  m_GameObject: {fileID: 1906631484910594704}
  m_Enabled: 1
  m_EditorHideFlags: 0
  m_Script: {fileID: 11500000, guid: f86d13fca2ec430d870c0f7765ad0dde, type: 3}
  m_Name: 
  m_EditorClassIdentifier: 
  m_AffordanceStateProvider: {fileID: 613904152636915291}
  m_ReplaceIdleStateValueWithInitialValue: 1
  m_AffordanceThemeDatum:
    m_UseConstant: 0
    m_ConstantValue:
      m_StateAnimationCurve:
        m_UseConstant: 1
        m_ConstantValue:
          serializedVersion: 2
          m_Curve:
          - serializedVersion: 3
            time: 0
            value: 0
            inSlope: 0
            outSlope: 0
            tangentMode: 0
            weightedMode: 0
            inWeight: 0
            outWeight: 0
          - serializedVersion: 3
            time: 1
            value: 1
            inSlope: 0
            outSlope: 0
            tangentMode: 0
            weightedMode: 0
            inWeight: 0
            outWeight: 0
          m_PreInfinity: 2
          m_PostInfinity: 2
          m_RotationOrder: 4
        m_Variable: {fileID: 0}
      m_List:
      - stateName: disabled
        animationStateStartValue: {r: 0, g: 0, b: 0, a: 0}
        animationStateEndValue: {r: 0, g: 0, b: 0, a: 0}
      - stateName: idle
        animationStateStartValue: {r: 0, g: 0, b: 0, a: 0}
        animationStateEndValue: {r: 0, g: 0, b: 0, a: 0}
      - stateName: hovered
        animationStateStartValue: {r: 0, g: 0, b: 0, a: 0}
        animationStateEndValue: {r: 0, g: 0, b: 0, a: 0}
      - stateName: hoveredPriority
        animationStateStartValue: {r: 0, g: 0, b: 0, a: 0}
        animationStateEndValue: {r: 0, g: 0, b: 0, a: 0}
      - stateName: selected
        animationStateStartValue: {r: 0, g: 0, b: 0, a: 0}
        animationStateEndValue: {r: 0, g: 0, b: 0, a: 0}
      - stateName: activated
        animationStateStartValue: {r: 0, g: 0, b: 0, a: 0}
        animationStateEndValue: {r: 0, g: 0, b: 0, a: 0}
      m_ColorBlendMode: 0
      m_BlendAmount: 1
    m_Variable: {fileID: 11400000, guid: edbea208ac59ec345a93dab8ac53573f, type: 2}
  m_ValueUpdated:
    m_PersistentCalls:
      m_Calls: []
  m_MaterialPropertyBlockHelper: {fileID: 2624292926324006388}
  m_ColorPropertyName: 
--- !u!114 &4315511750535313391
MonoBehaviour:
  m_ObjectHideFlags: 0
  m_CorrespondingSourceObject: {fileID: 0}
  m_PrefabInstance: {fileID: 0}
  m_PrefabAsset: {fileID: 0}
  m_GameObject: {fileID: 1906631484910594704}
  m_Enabled: 1
  m_EditorHideFlags: 0
  m_Script: {fileID: 11500000, guid: f86d13fca2ec430d870c0f7765ad0dde, type: 3}
  m_Name: 
  m_EditorClassIdentifier: 
  m_AffordanceStateProvider: {fileID: 613904152636915291}
  m_ReplaceIdleStateValueWithInitialValue: 1
  m_AffordanceThemeDatum:
    m_UseConstant: 0
    m_ConstantValue:
      m_StateAnimationCurve:
        m_UseConstant: 1
        m_ConstantValue:
          serializedVersion: 2
          m_Curve:
          - serializedVersion: 3
            time: 0
            value: 0
            inSlope: 0
            outSlope: 0
            tangentMode: 0
            weightedMode: 0
            inWeight: 0
            outWeight: 0
          - serializedVersion: 3
            time: 1
            value: 1
            inSlope: 0
            outSlope: 0
            tangentMode: 0
            weightedMode: 0
            inWeight: 0
            outWeight: 0
          m_PreInfinity: 2
          m_PostInfinity: 2
          m_RotationOrder: 4
        m_Variable: {fileID: 0}
      m_List:
      - stateName: disabled
        animationStateStartValue: {r: 0, g: 0, b: 0, a: 0}
        animationStateEndValue: {r: 0, g: 0, b: 0, a: 0}
      - stateName: idle
        animationStateStartValue: {r: 0, g: 0, b: 0, a: 0}
        animationStateEndValue: {r: 0, g: 0, b: 0, a: 0}
      - stateName: hovered
        animationStateStartValue: {r: 0, g: 0, b: 0, a: 0}
        animationStateEndValue: {r: 0, g: 0, b: 0, a: 0}
      - stateName: hoveredPriority
        animationStateStartValue: {r: 0, g: 0, b: 0, a: 0}
        animationStateEndValue: {r: 0, g: 0, b: 0, a: 0}
      - stateName: selected
        animationStateStartValue: {r: 0, g: 0, b: 0, a: 0}
        animationStateEndValue: {r: 0, g: 0, b: 0, a: 0}
      - stateName: activated
        animationStateStartValue: {r: 0, g: 0, b: 0, a: 0}
        animationStateEndValue: {r: 0, g: 0, b: 0, a: 0}
      m_ColorBlendMode: 0
      m_BlendAmount: 1
    m_Variable: {fileID: 11400000, guid: edbea208ac59ec345a93dab8ac53573f, type: 2}
  m_ValueUpdated:
    m_PersistentCalls:
      m_Calls: []
  m_MaterialPropertyBlockHelper: {fileID: 7751669403031880658}
  m_ColorPropertyName: 
--- !u!1 &4905038776123162090
GameObject:
  m_ObjectHideFlags: 0
  m_CorrespondingSourceObject: {fileID: 0}
  m_PrefabInstance: {fileID: 0}
  m_PrefabAsset: {fileID: 0}
  serializedVersion: 6
  m_Component:
  - component: {fileID: 4956033738250194184}
  - component: {fileID: 7642753897487797672}
  - component: {fileID: 4842504692509074559}
  m_Layer: 0
  m_Name: Audio Feedback
  m_TagString: Untagged
  m_Icon: {fileID: 0}
  m_NavMeshLayer: 0
  m_StaticEditorFlags: 0
  m_IsActive: 1
--- !u!4 &4956033738250194184
Transform:
  m_ObjectHideFlags: 0
  m_CorrespondingSourceObject: {fileID: 0}
  m_PrefabInstance: {fileID: 0}
  m_PrefabAsset: {fileID: 0}
  m_GameObject: {fileID: 4905038776123162090}
  serializedVersion: 2
  m_LocalRotation: {x: -0, y: -0, z: -0, w: 1}
  m_LocalPosition: {x: 0, y: 0, z: 0}
  m_LocalScale: {x: 1, y: 1, z: 1}
  m_ConstrainProportionsScale: 0
  m_Children: []
  m_Father: {fileID: 7995390759869629324}
  m_LocalEulerAnglesHint: {x: 0, y: 0, z: 0}
--- !u!82 &7642753897487797672
AudioSource:
  m_ObjectHideFlags: 0
  m_CorrespondingSourceObject: {fileID: 0}
  m_PrefabInstance: {fileID: 0}
  m_PrefabAsset: {fileID: 0}
  m_GameObject: {fileID: 4905038776123162090}
  m_Enabled: 1
  serializedVersion: 4
  OutputAudioMixerGroup: {fileID: 0}
  m_audioClip: {fileID: 8300000, guid: 2bd1cf10e88bfb9409e7f8e6b79c322f, type: 3}
  m_PlayOnAwake: 0
  m_Volume: 1
  m_Pitch: 1
  Loop: 0
  Mute: 0
  Spatialize: 0
  SpatializePostEffects: 0
  Priority: 128
  DopplerLevel: 1
  MinDistance: 1
  MaxDistance: 500
  Pan2D: 0
  rolloffMode: 0
  BypassEffects: 0
  BypassListenerEffects: 0
  BypassReverbZones: 0
  rolloffCustomCurve:
    serializedVersion: 2
    m_Curve:
    - serializedVersion: 3
      time: 0
      value: 1
      inSlope: 0
      outSlope: 0
      tangentMode: 0
      weightedMode: 0
      inWeight: 0.33333334
      outWeight: 0.33333334
    - serializedVersion: 3
      time: 1
      value: 0
      inSlope: 0
      outSlope: 0
      tangentMode: 0
      weightedMode: 0
      inWeight: 0.33333334
      outWeight: 0.33333334
    m_PreInfinity: 2
    m_PostInfinity: 2
    m_RotationOrder: 4
  panLevelCustomCurve:
    serializedVersion: 2
    m_Curve:
    - serializedVersion: 3
      time: 0
      value: 0
      inSlope: 0
      outSlope: 0
      tangentMode: 0
      weightedMode: 0
      inWeight: 0.33333334
      outWeight: 0.33333334
    m_PreInfinity: 2
    m_PostInfinity: 2
    m_RotationOrder: 4
  spreadCustomCurve:
    serializedVersion: 2
    m_Curve:
    - serializedVersion: 3
      time: 0
      value: 0
      inSlope: 0
      outSlope: 0
      tangentMode: 0
      weightedMode: 0
      inWeight: 0.33333334
      outWeight: 0.33333334
    m_PreInfinity: 2
    m_PostInfinity: 2
    m_RotationOrder: 4
  reverbZoneMixCustomCurve:
    serializedVersion: 2
    m_Curve:
    - serializedVersion: 3
      time: 0
      value: 1
      inSlope: 0
      outSlope: 0
      tangentMode: 0
      weightedMode: 0
      inWeight: 0.33333334
      outWeight: 0.33333334
    m_PreInfinity: 2
    m_PostInfinity: 2
    m_RotationOrder: 4
--- !u!114 &4842504692509074559
MonoBehaviour:
  m_ObjectHideFlags: 0
  m_CorrespondingSourceObject: {fileID: 0}
  m_PrefabInstance: {fileID: 0}
  m_PrefabAsset: {fileID: 0}
  m_GameObject: {fileID: 4905038776123162090}
  m_Enabled: 1
  m_EditorHideFlags: 0
  m_Script: {fileID: 11500000, guid: 186056f485a2493b80cc81571ac8cd9b, type: 3}
  m_Name: 
  m_EditorClassIdentifier: 
  m_AffordanceStateProvider: {fileID: 613904152636915291}
  m_AffordanceThemeDatum:
    m_UseConstant: 0
    m_ConstantValue:
      m_List:
      - stateName: disabled
        stateEntered: {fileID: 0}
        stateExited: {fileID: 0}
      - stateName: idle
        stateEntered: {fileID: 0}
        stateExited: {fileID: 0}
      - stateName: hovered
        stateEntered: {fileID: 0}
        stateExited: {fileID: 0}
      - stateName: hoveredPriority
        stateEntered: {fileID: 0}
        stateExited: {fileID: 0}
      - stateName: selected
        stateEntered: {fileID: 0}
        stateExited: {fileID: 0}
      - stateName: activated
        stateEntered: {fileID: 0}
        stateExited: {fileID: 0}
    m_Variable: {fileID: 11400000, guid: 58f9470af09965745abcc8aec647c0aa, type: 2}
  m_AudioSource: {fileID: 7642753897487797672}
--- !u!1 &5162356030215288089
GameObject:
  m_ObjectHideFlags: 0
  m_CorrespondingSourceObject: {fileID: 0}
  m_PrefabInstance: {fileID: 0}
  m_PrefabAsset: {fileID: 0}
  serializedVersion: 6
  m_Component:
  - component: {fileID: 209068324170568505}
  - component: {fileID: 2216814198869864760}
  m_Layer: 0
  m_Name: Joystick
  m_TagString: Untagged
  m_Icon: {fileID: 0}
  m_NavMeshLayer: 0
  m_StaticEditorFlags: 0
  m_IsActive: 1
--- !u!4 &209068324170568505
Transform:
  m_ObjectHideFlags: 0
  m_CorrespondingSourceObject: {fileID: 0}
  m_PrefabInstance: {fileID: 0}
  m_PrefabAsset: {fileID: 0}
  m_GameObject: {fileID: 5162356030215288089}
  serializedVersion: 2
  m_LocalRotation: {x: 0, y: 0, z: 0, w: 1}
  m_LocalPosition: {x: 0, y: 0, z: 0}
  m_LocalScale: {x: 1, y: 1, z: 1}
  m_ConstrainProportionsScale: 0
  m_Children:
  - {fileID: 1184765346777993249}
  - {fileID: 7995390759869629324}
  m_Father: {fileID: 0}
  m_LocalEulerAnglesHint: {x: 0, y: 0, z: 0}
--- !u!114 &2216814198869864760
MonoBehaviour:
  m_ObjectHideFlags: 0
  m_CorrespondingSourceObject: {fileID: 0}
  m_PrefabInstance: {fileID: 0}
  m_PrefabAsset: {fileID: 0}
  m_GameObject: {fileID: 5162356030215288089}
  m_Enabled: 1
  m_EditorHideFlags: 0
  m_Script: {fileID: 11500000, guid: 754d27665ba38d44b9c1633441bdd691, type: 3}
  m_Name: 
  m_EditorClassIdentifier: 
  m_InteractionManager: {fileID: 0}
  m_Colliders: []
  m_InteractionLayerMask:
    serializedVersion: 2
    m_Bits: 1
  m_InteractionLayers:
    m_Bits: 1
  m_DistanceCalculationMode: 1
  m_SelectMode: 0
  m_FocusMode: 1
  m_CustomReticle: {fileID: 0}
  m_AllowGazeInteraction: 0
  m_AllowGazeSelect: 0
  m_OverrideGazeTimeToSelect: 0
  m_GazeTimeToSelect: 0.5
  m_OverrideTimeToAutoDeselectGaze: 0
  m_TimeToAutoDeselectGaze: 3
  m_AllowGazeAssistance: 0
  m_FirstHoverEntered:
    m_PersistentCalls:
      m_Calls: []
  m_LastHoverExited:
    m_PersistentCalls:
      m_Calls: []
  m_HoverEntered:
    m_PersistentCalls:
      m_Calls: []
  m_HoverExited:
    m_PersistentCalls:
      m_Calls: []
  m_FirstSelectEntered:
    m_PersistentCalls:
      m_Calls: []
  m_LastSelectExited:
    m_PersistentCalls:
      m_Calls: []
  m_SelectEntered:
    m_PersistentCalls:
      m_Calls: []
  m_SelectExited:
    m_PersistentCalls:
      m_Calls: []
  m_FirstFocusEntered:
    m_PersistentCalls:
      m_Calls: []
  m_LastFocusExited:
    m_PersistentCalls:
      m_Calls: []
  m_FocusEntered:
    m_PersistentCalls:
      m_Calls: []
  m_FocusExited:
    m_PersistentCalls:
      m_Calls: []
  m_Activated:
    m_PersistentCalls:
      m_Calls: []
  m_Deactivated:
    m_PersistentCalls:
      m_Calls: []
  m_StartingHoverFilters: []
  m_StartingSelectFilters: []
  m_StartingInteractionStrengthFilters: []
  m_OnFirstHoverEntered:
    m_PersistentCalls:
      m_Calls: []
  m_OnLastHoverExited:
    m_PersistentCalls:
      m_Calls: []
  m_OnHoverEntered:
    m_PersistentCalls:
      m_Calls: []
  m_OnHoverExited:
    m_PersistentCalls:
      m_Calls: []
  m_OnSelectEntered:
    m_PersistentCalls:
      m_Calls: []
  m_OnSelectExited:
    m_PersistentCalls:
      m_Calls: []
  m_OnSelectCanceled:
    m_PersistentCalls:
      m_Calls: []
  m_OnActivate:
    m_PersistentCalls:
      m_Calls: []
  m_OnDeactivate:
    m_PersistentCalls:
      m_Calls: []
  m_JoystickMotion: 0
  m_Handle: {fileID: 5766835434376966388}
  m_Value: {x: 0, y: 0}
  m_RecenterOnRelease: 1
  m_MaxAngle: 40
  m_DeadZoneAngle: 3.6
  m_OnValueChangeX:
    m_PersistentCalls:
      m_Calls: []
  m_OnValueChangeY:
    m_PersistentCalls:
      m_Calls: []
--- !u!1 &6334240440595505955
GameObject:
  m_ObjectHideFlags: 0
  m_CorrespondingSourceObject: {fileID: 0}
  m_PrefabInstance: {fileID: 0}
  m_PrefabAsset: {fileID: 0}
  serializedVersion: 6
  m_Component:
  - component: {fileID: 7995390759869629324}
  - component: {fileID: 613904152636915291}
  m_Layer: 0
  m_Name: Feedback Effects
  m_TagString: Untagged
  m_Icon: {fileID: 0}
  m_NavMeshLayer: 0
  m_StaticEditorFlags: 0
  m_IsActive: 1
--- !u!4 &7995390759869629324
Transform:
  m_ObjectHideFlags: 0
  m_CorrespondingSourceObject: {fileID: 0}
  m_PrefabInstance: {fileID: 0}
  m_PrefabAsset: {fileID: 0}
  m_GameObject: {fileID: 6334240440595505955}
  serializedVersion: 2
  m_LocalRotation: {x: -0, y: 1, z: -0, w: 0}
  m_LocalPosition: {x: 0.19999981, y: 0, z: -0}
  m_LocalScale: {x: 1, y: 1, z: 1}
  m_ConstrainProportionsScale: 0
  m_Children:
  - {fileID: 4956033738250194184}
  - {fileID: 3764568182775414197}
  m_Father: {fileID: 209068324170568505}
  m_LocalEulerAnglesHint: {x: 0, y: 0, z: 0}
--- !u!114 &613904152636915291
MonoBehaviour:
  m_ObjectHideFlags: 0
  m_CorrespondingSourceObject: {fileID: 0}
  m_PrefabInstance: {fileID: 0}
  m_PrefabAsset: {fileID: 0}
  m_GameObject: {fileID: 6334240440595505955}
  m_Enabled: 1
  m_EditorHideFlags: 0
  m_Script: {fileID: 11500000, guid: 49e0a5b5ff5540f5b14dd29d46faec22, type: 3}
  m_Name: 
  m_EditorClassIdentifier: 
  m_TransitionDuration: 0.125
  m_InteractableSource: {fileID: 2216814198869864760}
  m_IgnoreHoverEvents: 0
  m_IgnoreHoverPriorityEvents: 0
  m_IgnoreFocusEvents: 1
  m_IgnoreSelectEvents: 1
  m_IgnoreActivateEvents: 0
  m_SelectClickAnimationMode: 1
  m_ActivateClickAnimationMode: 1
  m_ClickAnimationDuration: 0.25
  m_ClickAnimationCurve:
    m_UseConstant: 1
    m_ConstantValue:
      serializedVersion: 2
      m_Curve:
      - serializedVersion: 3
        time: 0
        value: 0
        inSlope: 0
        outSlope: 0
        tangentMode: 0
        weightedMode: 0
        inWeight: 0
        outWeight: 0
      - serializedVersion: 3
        time: 1
        value: 1
        inSlope: 0
        outSlope: 0
        tangentMode: 0
        weightedMode: 0
        inWeight: 0
        outWeight: 0
      m_PreInfinity: 2
      m_PostInfinity: 2
      m_RotationOrder: 4
    m_Variable: {fileID: 0}
--- !u!1001 &1728142777572161482
PrefabInstance:
  m_ObjectHideFlags: 0
  serializedVersion: 2
  m_Modification:
    serializedVersion: 3
    m_TransformParent: {fileID: 209068324170568505}
    m_Modifications:
    - target: {fileID: -8679921383154817045, guid: 8b10f174a94704843ab5aca0b9dd5c7d,
        type: 3}
      propertyPath: m_RootOrder
      value: 0
      objectReference: {fileID: 0}
    - target: {fileID: -8679921383154817045, guid: 8b10f174a94704843ab5aca0b9dd5c7d,
        type: 3}
      propertyPath: m_LocalPosition.x
      value: 0
      objectReference: {fileID: 0}
    - target: {fileID: -8679921383154817045, guid: 8b10f174a94704843ab5aca0b9dd5c7d,
        type: 3}
      propertyPath: m_LocalPosition.y
      value: 0
      objectReference: {fileID: 0}
    - target: {fileID: -8679921383154817045, guid: 8b10f174a94704843ab5aca0b9dd5c7d,
        type: 3}
      propertyPath: m_LocalPosition.z
      value: 0
      objectReference: {fileID: 0}
    - target: {fileID: -8679921383154817045, guid: 8b10f174a94704843ab5aca0b9dd5c7d,
        type: 3}
      propertyPath: m_LocalRotation.w
      value: 1
      objectReference: {fileID: 0}
    - target: {fileID: -8679921383154817045, guid: 8b10f174a94704843ab5aca0b9dd5c7d,
        type: 3}
      propertyPath: m_LocalRotation.x
      value: -0
      objectReference: {fileID: 0}
    - target: {fileID: -8679921383154817045, guid: 8b10f174a94704843ab5aca0b9dd5c7d,
        type: 3}
      propertyPath: m_LocalRotation.y
      value: -0
      objectReference: {fileID: 0}
    - target: {fileID: -8679921383154817045, guid: 8b10f174a94704843ab5aca0b9dd5c7d,
        type: 3}
      propertyPath: m_LocalRotation.z
      value: -0
      objectReference: {fileID: 0}
    - target: {fileID: -8679921383154817045, guid: 8b10f174a94704843ab5aca0b9dd5c7d,
        type: 3}
      propertyPath: m_LocalEulerAnglesHint.x
      value: 0
      objectReference: {fileID: 0}
    - target: {fileID: -8679921383154817045, guid: 8b10f174a94704843ab5aca0b9dd5c7d,
        type: 3}
      propertyPath: m_LocalEulerAnglesHint.y
      value: 0
      objectReference: {fileID: 0}
    - target: {fileID: -8679921383154817045, guid: 8b10f174a94704843ab5aca0b9dd5c7d,
        type: 3}
      propertyPath: m_LocalEulerAnglesHint.z
      value: 0
      objectReference: {fileID: 0}
    - target: {fileID: 919132149155446097, guid: 8b10f174a94704843ab5aca0b9dd5c7d,
        type: 3}
      propertyPath: m_Name
      value: Joystick Visuals
      objectReference: {fileID: 0}
    - target: {fileID: 5999524339496585636, guid: 8b10f174a94704843ab5aca0b9dd5c7d,
        type: 3}
      propertyPath: m_Materials.Array.data[0]
      value: 
      objectReference: {fileID: 2100000, guid: 6efb7d9835713ae4d947888719348854, type: 2}
    - target: {fileID: 5999524339496585636, guid: 8b10f174a94704843ab5aca0b9dd5c7d,
        type: 3}
      propertyPath: m_Materials.Array.data[1]
      value: 
      objectReference: {fileID: 2100000, guid: 7ea6f82d17b474e4286937aad92b57bf, type: 2}
    - target: {fileID: 9222011746831282838, guid: 8b10f174a94704843ab5aca0b9dd5c7d,
        type: 3}
      propertyPath: m_Materials.Array.data[0]
      value: 
      objectReference: {fileID: 2100000, guid: ca96478e53b8fd44e97a53935fb8c932, type: 2}
    m_RemovedComponents: []
    m_RemovedGameObjects: []
    m_AddedGameObjects: []
    m_AddedComponents:
    - targetCorrespondingSourceObject: {fileID: -4640650921596906464, guid: 8b10f174a94704843ab5aca0b9dd5c7d,
        type: 3}
      insertIndex: -1
      addedObject: {fileID: 3755965145216465642}
    - targetCorrespondingSourceObject: {fileID: -4640650921596906464, guid: 8b10f174a94704843ab5aca0b9dd5c7d,
        type: 3}
      insertIndex: -1
      addedObject: {fileID: 9000540783303715928}
  m_SourcePrefab: {fileID: 100100000, guid: 8b10f174a94704843ab5aca0b9dd5c7d, type: 3}
--- !u!4 &1184765346777993249 stripped
Transform:
  m_CorrespondingSourceObject: {fileID: -8679921383154817045, guid: 8b10f174a94704843ab5aca0b9dd5c7d,
    type: 3}
  m_PrefabInstance: {fileID: 1728142777572161482}
  m_PrefabAsset: {fileID: 0}
--- !u!1 &2910029191845569514 stripped
GameObject:
  m_CorrespondingSourceObject: {fileID: -4640650921596906464, guid: 8b10f174a94704843ab5aca0b9dd5c7d,
    type: 3}
  m_PrefabInstance: {fileID: 1728142777572161482}
  m_PrefabAsset: {fileID: 0}
--- !u!54 &3755965145216465642
Rigidbody:
  m_ObjectHideFlags: 0
  m_CorrespondingSourceObject: {fileID: 0}
  m_PrefabInstance: {fileID: 0}
  m_PrefabAsset: {fileID: 0}
  m_GameObject: {fileID: 2910029191845569514}
  serializedVersion: 4
  m_Mass: 1
  m_Drag: 0
  m_AngularDrag: 0.05
  m_CenterOfMass: {x: 0, y: 0, z: 0}
  m_InertiaTensor: {x: 1, y: 1, z: 1}
  m_InertiaRotation: {x: 0, y: 0, z: 0, w: 1}
  m_IncludeLayers:
    serializedVersion: 2
    m_Bits: 0
  m_ExcludeLayers:
    serializedVersion: 2
    m_Bits: 0
  m_ImplicitCom: 1
  m_ImplicitTensor: 1
  m_UseGravity: 0
  m_IsKinematic: 1
  m_Interpolate: 0
  m_Constraints: 0
  m_CollisionDetection: 0
--- !u!136 &9000540783303715928
CapsuleCollider:
  m_ObjectHideFlags: 0
  m_CorrespondingSourceObject: {fileID: 0}
  m_PrefabInstance: {fileID: 0}
  m_PrefabAsset: {fileID: 0}
  m_GameObject: {fileID: 2910029191845569514}
  m_Material: {fileID: 0}
  m_IncludeLayers:
    serializedVersion: 2
    m_Bits: 0
  m_ExcludeLayers:
    serializedVersion: 2
    m_Bits: 0
  m_LayerOverridePriority: 0
  m_IsTrigger: 0
  m_ProvidesContacts: 0
  m_Enabled: 1
  serializedVersion: 2
  m_Radius: 0.029782085
  m_Height: 0.22757286
  m_Direction: 1
  m_Center: {x: -0.001439685, y: 0.08473791, z: -0.00000024121255}
--- !u!23 &4952005941275491950 stripped
MeshRenderer:
  m_CorrespondingSourceObject: {fileID: 5999524339496585636, guid: 8b10f174a94704843ab5aca0b9dd5c7d,
    type: 3}
  m_PrefabInstance: {fileID: 1728142777572161482}
  m_PrefabAsset: {fileID: 0}
--- !u!4 &5766835434376966388 stripped
Transform:
  m_CorrespondingSourceObject: {fileID: -4036224768591739074, guid: 8b10f174a94704843ab5aca0b9dd5c7d,
    type: 3}
  m_PrefabInstance: {fileID: 1728142777572161482}
  m_PrefabAsset: {fileID: 0}
